237 1238 182
3481 4893 238
9569 384 262
83928 857 351
8743 4 262
8888 8888 35
493 283 144
6489 8953 257
3 84 116
853 93 171
848 7 171
7 14 20
87 32 116
12 22 21
9834 56 262
5434 66 238
4 5 6
27 38 112
823 48 171
2094 9 182
2134 2137 64
324 455 144
438 39 144
7474 5888 262
12 21 21
3 999 179
857 103 171
1743 174 182
1923 281 182
291 134 128
129 239 128
459 239 144
574 382 142
328 133 144
435 679 145
567 293 144
983 103 179
578 652 145
34 2 112
38 68 113
834 66 171
88 77 111
82 59 116
91 48 116
19 30 112
58 1932 182
764 821 153
111 845 171
67 32 113
82 309 128
183 39 125
283 57 128
128 68 119
73 485 144
18 462 144
82 212 125
37 85 116
29 432 144
5783 2038 238
2184 5827 238
283 50 128
2747 23 209
29 238 128
267 29 128
5737 383 238
47 98 119
459 28 144
49 583 144
583 2 144
198 372 144
44 382 144
8458 132 262
222 233 128
238 58 128
637 688 145
584 995 179
85 76 111
95 38 116
283 59 128
73 93 116
29 48 110
2735 956 209
9999 384 262
293 888 179
9999 2 262
9999 57 262
8287 48 262
28 28 19
245 57 128
289 77 128
92 81 111
84 674 145
653 90 145
87 76 111
53 9 112
865 99 171
788 53 171
5 75 116
90 45 116
100 40 119
250 89 128
66 66 28
90 43 116
643 748 171
842 843 42
9999 9998 92
9998 9999 92
9999 9999 92
6000 5900 187
400 403 28
705 720 127
845 860 148
1 1 1
1 12 20
24 28 112
30 78 116
1000 1000 112
9 1000 179
9000 3000 262
8000 7000 252
7000 6000 262
6000 5000 236
4000 3000 238
2000 1000 182
84 905 179
765 1250 182
8000 8250 190
6000 6200 262
400 500 142
4020 4080 158
4070 3950 189
506 560 137
3020 3030 142
3023 3023 93
3033 3023 142
454 4 144
5 1 8
100 200 125
500 4 144
6 700 145
8 69 113
512 675 145
5642 5734 205
837800 837799 525
837799 837800 525
999999 999999 259
